Preceptor’s Primer for Bayesian Data Science: Using the Cardinal Virtues for Inference - 9 Five Parameters
…
First we want to take a look at our mathematics once again:

\[ lived\_after_i =  \beta_0 + \beta_1 male_i + \beta_2 c\_election\_age_i + \\
\beta_3 male_i *  c\_election\_age_i + \epsilon_i \]

newobs = tibble(sex = c("Male", "Female"), 
                 election_age = 50)

With newobs we are want to generate a sample of what a scenario may look like for a candidate’s longevity. Here we establish the two sexes and the election age that we want to deal with for our candidates.

fit_all |> 
  add_epred_draws(newdata = newobs)

# A tibble: 8,000 × 7
# Groups:   sex, election_age, .row [2]
   sex   election_age  .row .chain .iteration .draw .epred
   <chr>        <dbl> <int>  <int>      <int> <int>  <dbl>
 1 Male            50     1     NA         NA     1   29.7
 2 Male            50     1     NA         NA     2   29.9
 3 Male            50     1     NA         NA     3   30.0
 4 Male            50     1     NA         NA     4   29.9
 5 Male            50     1     NA         NA     5   29.9
 6 Male            50     1     NA         NA     6   29.3
 7 Male            50     1     NA         NA     7   29.2
 8 Male            50     1     NA         NA     8   29.2
 9 Male            50     1     NA         NA     9   30.0
10 Male            50     1     NA         NA    10   29.8
# ℹ 7,990 more rows
…
