Preceptor’s Primer for Bayesian Data Science: Using the Cardinal Virtues for Inference - 8 Four Parameters: Categorical
…
M

As usual the ID column is irrelevant. We don’t need to know exactly who voted for whom to answer our question. We just need to know the sex of each voter.

There were 104,425,014 total votes cast in the 1992 Presidential election. But our table only has 103,754,865 rows because we are only modeling people who cast their votes for one of the three main candidates. Is that the “right” approach? It depends! As always, data science is a dialogue between the question with which we start and the data/tools we have available to answer it. In this case, we choose to simplify the question, to focus on only the three main candidates, mainly because we want to use a model with three outcomes. We could, instead, create a more complicated model which included votes cast for other candidates. Our new question is now:

What was the relationship between sex and voting in the 1992 US Presidential election among supporters of the three leading candidates: Clinton, Bush and Perot?

8.1.2 EDA

Our data comes from American National Election Studies. The primer.data package includes a version of the main data set with a selection of variables. The full ANES data is much richer than this relatively simple tibble.

nes

# A tibble: 46,838 × 18
    year state sex    income  age     education      race  ideology voted region
   <int> <chr> <chr>  <fct>   <fct>   <fct>          <chr> <fct>    <chr> <fct> 
 1  1952 NY    Female 68 - 95 25 - 34 Highschool     White Weak Re… Yes   North…
 2  1952 NY    Female 68 - 95 25 - 34 Elementary     White Indepen… Yes   North…
 3  1952 NY    Female 34 - 67 25 - 34 Highschool     White Indepen… Yes   North…
 4  1952 NY    Male   34 - 67 55 - 64 Some Highscho… White Strong … Yes   North…
 5  1952 OH    Female 0 - 16  65 - 74 Highschool +   White Strong … Yes   Midwe…
 6  1952 OH    Female 68 - 95 45 - 54 Some Highscho… White Indepen… Yes   Midwe…
 7  1952 ID    Female 0 - 16  65 - 74 Elementary     White Indepen… Yes   West  
 8  1952 MI    Male   17 - 33 25 - 34 Highschool +   Black Weak De… Yes   Midwe…
 9  1952 GA    Female 0 - 16  25 - 34 Some Highscho… White <NA>     No    South 
10  1952 OH    Female 68 - 95 35 - 44 Elementary     White Weak Re… Yes   Midwe…
# ℹ 46,828 more rows
# ℹ 8 more variables: pres_appr <chr>, influence <chr>, equality <chr>,
#   religion <chr>, better_alone <chr>, therm_black <int>, therm_white <int>,
#   pres_vote <chr>
…
nes_92 <- nes |> 
  filter(year == 1992) |> 
  select(sex, pres_vote) |> 
  drop_na() |> 
  mutate(pres_vote = case_when(
    pres_vote == "Democrat" ~ "Clinton",
    pres_vote == "Republican" ~ "Bush",
    pres_vote == "Third Party" ~ "Perot",
  ))

Show the code
nes_92

# A tibble: 1,658 × 2
   sex    pres_vote
   <chr>  <chr>    
 1 Female Bush     
 2 Female Bush     
 3 Female Clinton  
 4 Male   Bush     
 5 Female Clinton  
 6 Female Clinton  
 7 Female Perot    
 8 Male   Bush     
 9 Female Bush     
10 Male   Perot    
# ℹ 1,648 more rows
…
