Preceptor’s Primer for Bayesian Data Science: Using the Cardinal Virtues for Inference - 7 Mechanics
…
Because att_end takes on 13 unique values, the model makes 13 unique predictions. Some of those predictions are perfect! But others are very wrong. The red line shows the points where our predictions match the truth. Note the individual with a predicted att_end of around 9 but with an actual value of 15. That is a big miss!

Rather than looking at individual cases, we need to look at the errors for all the predictions. Fortunately, a prediction error is the same thing as a residual, which is easy enough to calculate.

trains |> 
  select(att_end, att_start, liberal) |> 
  mutate(pred_lib = fitted(fit_liberal)[,"Estimate"]) |> 
  mutate(resid_lib = pred_lib - att_end) |> 
  mutate(pred_as = fitted(fit_liberal)[,"Estimate"]) |> 
  mutate(resid_as = pred_as - att_end)

# A tibble: 115 × 7
   att_end att_start liberal pred_lib resid_lib pred_as resid_as
     <dbl>     <dbl> <lgl>      <dbl>     <dbl>   <dbl>    <dbl>
 1      11        11 FALSE      10.0    -0.975    10.0   -0.975 
 2      10         9 FALSE      10.0     0.0249   10.0    0.0249
 3       5         3 TRUE        8.02    3.02      8.02   3.02  
 4      11        11 FALSE      10.0    -0.975    10.0   -0.975 
 5       5         8 TRUE        8.02    3.02      8.02   3.02  
 6      13        13 FALSE      10.0    -2.98     10.0   -2.98  
 7      13        13 FALSE      10.0    -2.98     10.0   -2.98  
 8      11        10 FALSE      10.0    -0.975    10.0   -0.975 
 9      12        12 FALSE      10.0    -1.98     10.0   -1.98  
10      10         9 FALSE      10.0     0.0249   10.0    0.0249
# ℹ 105 more rows
…
