Preceptor’s Primer for Bayesian Data Science: Using the Cardinal Virtues for Inference - 3 Sampling
…
Hand-drawn histogram of first 10 out of 33 proportions.

Observe the following details in the histogram:

At the low end, one group removed 50 beads from the urn with proportion red between 0.20 and 0.25.

At the high end, another group removed 50 beads from the urn with proportion between 0.45 and 0.5 red.

However, the most frequently occurring proportions were between 0.30 and 0.35 red, right in the middle of the distribution.

The distribution is somewhat bell-shaped.

tactile_sample_urn saves the results from our 33 groups of friends.

# A tibble: 33 × 4
   group           red_beads prop_red group_ID
   <chr>               <dbl>    <dbl>    <int>
 1 Claire, Cloud          16     0.32        1
 2 Ellie, Terrance        17     0.34        2
 3 Morgan, Emily          21     0.42        3
 4 Dania, Derek           21     0.42        4
 5 Paddy, Matt            16     0.32        5
 6 Siobhan, Jane          11     0.22        6
 7 Vignesh, Eliot         16     0.32        7
 8 Yuki, Harry            21     0.42        8
 9 Mark, Jane             21     0.42        9
10 Mia, James             15     0.3        10
# ℹ 23 more rows
…
urn <- tibble(color = c(rep("red", 400), 
                        rep("white", 600))) |>
  
  # sample_frac() keeps all the rows in the tibble but rearranges their order.
  # We don't need to do this. A virtual urn does not care about the order of the
  # beads. But we find it aesthetically pleasing to mix them up.
  
  sample_frac() |> 
  mutate(bead_ID = 1:1000) |> 
  select(bead_ID, color)

urn  

# A tibble: 1,000 × 2
   bead_ID color
     <int> <chr>
 1       1 white
 2       2 red  
 3       3 red  
 4       4 white
 5       5 white
 6       6 red  
 7       7 white
 8       8 white
 9       9 red  
10      10 red  
# ℹ 990 more rows
…
Let’s use our virtual sampling to replicate the tactile sampling activity in a virtual format. We’ll save these results in a data frame called virtual_samples.

Show the code

set.seed(13)

 virtual_samples <- tibble(trial_ID = 1:33) |>
    mutate(shovel = map(trial_ID, ~ slice_sample(urn, n = 50))) |> 
    mutate(numb_red = map_int(shovel, ~ sum(.$color == "red"))) |>
    mutate(prop_red = numb_red / 50) 

virtual_samples

# A tibble: 33 × 4
   trial_ID shovel            numb_red prop_red
      <int> <list>               <int>    <dbl>
 1        1 <tibble [50 × 2]>       21     0.42
 2        2 <tibble [50 × 2]>       21     0.42
 3        3 <tibble [50 × 2]>       20     0.4 
 4        4 <tibble [50 × 2]>       17     0.34
 5        5 <tibble [50 × 2]>       20     0.4 
 6        6 <tibble [50 × 2]>       18     0.36
 7        7 <tibble [50 × 2]>       24     0.48
 8        8 <tibble [50 × 2]>       21     0.42
 9        9 <tibble [50 × 2]>       17     0.34
10       10 <tibble [50 × 2]>       21     0.42
# ℹ 23 more rows
…
Variance appears everywhere in data science.

Let’s take a step back from all the variance. The reality is that our code needs to be better optimized, as it is bad practice to make a separate tibble for each sample size. To make comparisons easier, let’s attempt to put all 3 shovel sizes in the same tibble using mapping.

Show the code

tibble(trial_ID = 1:10000) |>
  mutate(shovel_ID = map(trial_ID, ~c(25, 50, 100))) |>
  unnest(shovel_ID) |>
  mutate(samples = map(shovel_ID, ~slice_sample(urn, n = .))) |>
  mutate(num_red = map_int(samples, ~sum(.$color == "red"))) |>
  mutate(prop_red = num_red/shovel_ID)

# A tibble: 30,000 × 5
   trial_ID shovel_ID samples            num_red prop_red
      <int>     <dbl> <list>               <int>    <dbl>
 1        1        25 <tibble [25 × 2]>       13     0.52
 2        1        50 <tibble [50 × 2]>       25     0.5 
 3        1       100 <tibble [100 × 2]>      49     0.49
 4        2        25 <tibble [25 × 2]>       10     0.4 
 5        2        50 <tibble [50 × 2]>       24     0.48
 6        2       100 <tibble [100 × 2]>      35     0.35
 7        3        25 <tibble [25 × 2]>        9     0.36
 8        3        50 <tibble [50 × 2]>       15     0.3 
 9        3       100 <tibble [100 × 2]>      35     0.35
10        4        25 <tibble [25 × 2]>       12     0.48
# ℹ 29,990 more rows
…
