Preceptor’s Primer for Bayesian Data Science: Using the Cardinal Virtues for Inference - 6 Three Parameters: Causal
…
No

Starred values were not observed in the experiment. That is, Person 10 received the treatment and, afterwards, had a value of 5 for her attitude toward immigration. We don’t know — we can’t know — what her attitude would have been if she had received control instead. But, with the tools of inference, we can estimate what that value would have been if she had, in fact, received control.

A Preceptor Table is the smallest possible table with rows and columns such that, if there is no missing data, all our questions are easy to answer. To answer questions about the average treatment effect, of exposing people to Spanish-speakers, on their attitudes toward immigration, we need a row for every adult in Chicago in 2024.

6.1.2 Exploratory Data Analysis

Recall the discussion from Chapter 1. Enos (2014) randomly placed Spanish-speaking confederates on nine train platforms around Boston, Massachusetts. The data that we want to analyze consists of the attitude toward immigration after the experiment is complete (att_end) and the exposure to Spanish-speakers (treatment) of each individual on these train platforms.

trains |>
  select(att_end, treatment)

# A tibble: 115 × 2
   att_end treatment
     <dbl> <fct>    
 1      11 Treated  
 2      10 Treated  
 3       5 Treated  
 4      11 Treated  
 5       5 Control  
 6      13 Treated  
 7      13 Control  
 8      11 Treated  
 9      12 Control  
10      10 Treated  
# ℹ 105 more rows
…
6.4.1 Questions and Answers

Recall the original question:

What is the average treatment effect, of exposing people to Spanish-speakers, on their attitudes toward immigration?

We have already clarified that the question refers to residents of Chicago (and similar cities) in 2024.

Use add_epred_draws() as usual. Creating the value for the newdata argument is tricky since we need to construct the treatment variable by hand. Even though treatment is a factor variable within trains, we can get away with using a simple character variable since either version would be transformed into a 0/1 variable by add_epred_draws().

fit_gauss |> 
  add_epred_draws(
    newdata = tibble(treatment = c("Treated", "Control")))

# A tibble: 8,000 × 6
# Groups:   treatment, .row [2]
   treatment  .row .chain .iteration .draw .epred
   <chr>     <int>  <int>      <int> <int>  <dbl>
 1 Treated       1     NA         NA     1   9.92
 2 Treated       1     NA         NA     2   9.71
 3 Treated       1     NA         NA     3   9.50
 4 Treated       1     NA         NA     4  10.7 
 5 Treated       1     NA         NA     5  10.3 
 6 Treated       1     NA         NA     6  10.0 
 7 Treated       1     NA         NA     7  10.2 
 8 Treated       1     NA         NA     8  10.2 
 9 Treated       1     NA         NA     9  10.3 
10 Treated       1     NA         NA    10  10.6 
# ℹ 7,990 more rows
…
Just eyeballing the graph, we can see that the posterior att_end for Control is centered around 8.5. For Treated, the center is around 10. Since the causal effect is the difference between two outcomes, we can simply subtract and estimate that the causal effect is about \(10 - 8.5 = 1.5\).

Even better, we can do the calculation on the individual rows of the posterior draws. But, first, we need to “widen” the tibble.

fit_gauss |> 
  add_epred_draws(
    newdata = tibble(treatment = c("Treated", "Control"))) |> 
  pivot_wider(id_cols = .draw, names_from = treatment, values_from = .epred)

# A tibble: 4,000 × 3
   .draw Treated Control
   <int>   <dbl>   <dbl>
 1     1    9.92    8.10
 2     2    9.71    8.71
 3     3    9.50    8.76
 4     4   10.7     8.41
 5     5   10.3     8.32
 6     6   10.0     7.75
 7     7   10.2     7.89
 8     8   10.2     7.99
 9     9   10.3     8.33
10    10   10.6     8.13
# ℹ 3,990 more rows
…
